﻿[
	{
		"_id": "co-0",
		"_parentId": "course",
		"_type": "page",
		"_classes": "",
		"height":"570",
		"title": "Pendahuluan",
		"displayTitle": "Pendahuluan",
		"pageBody": "Kenali salah satu tujuan iklan Facebook yang paling andal: Konversi.",
		"body": "Kenali salah satu tujuan iklan Facebook yang paling andal: Konversi.",
		"_graphic": {
			"src": "course/en/images/contentobjects/co1.png",
			"alt": "Sinopsis"
		},
		"linkText": "Lihat",
		"durationLabel": "Durasi:",
		"duration": "7 menit",
		"_pageLevelProgress": {
			"_isEnabled": true
		}
	},
    
    {
		"_id": "co-100",
		"_parentId": "course",
		"_type": "page",
		"_classes": "",
		"height":"570",
		"title": "Resep untuk Iklan Konversi",
		"displayTitle": "Resep untuk Iklan Konversi",
		"pageBody": "Ketahui bahan untuk membuat iklan Konversi dan pahami bagaimana bahan-bahan tersebut dipadukan. ",
		"body": "Ketahui bahan untuk membuat iklan Konversi dan pahami bagaimana bahan-bahan tersebut dipadukan. ",
		"_graphic": {
			"src": "course/en/images/contentobjects/co-2.png",
			"alt": "Sinopsis"
		},
		"linkText": "Lihat",
		"durationLabel": "Durasi:",
		"duration": "6 menit",
		"_pageLevelProgress": {
			"_isEnabled": true
		}
	},
        {
		"_id": "co-150",
		"_parentId": "course",
		"_type": "page",
		"_classes": "",
		"height":"570",
		"title": "Dasar-dasar",
		"displayTitle": "Dasar-dasar",
		"pageBody": "Pelajari dasar-dasar penerapan piksel dan peristiwa aplikasi serta pengukuran konversi. ",
		"body": "Pelajari dasar-dasar penerapan piksel dan peristiwa aplikasi serta pengukuran konversi.   ",
		"_graphic": {
			"src": "course/en/images/contentobjects/before.png",
			"alt": "Sinopsis"
		},
		"linkText": "Lihat",
		"durationLabel": "Durasi:",
		"duration": "8 menit",
		"_pageLevelProgress": {
			"_isEnabled": true
		}
	},
    {
		"_id": "co-200",
		"_parentId": "course",
		"_type": "page",
		"_classes": "",
		"height":"570",
		"title": "Sumber Daya Konversi Anda ",
		"displayTitle": "Sumber Daya Konversi Anda",
		"pageBody": "Kenali alat tambahan yang dapat Anda gunakan untuk meningkatkan iklan konversi Anda.",
		"body": "Kenali alat tambahan yang dapat Anda gunakan untuk meningkatkan iklan konversi Anda.",
		"_graphic": {
			"src": "course/en/images/contentobjects/arsenal.jpg",
			"alt": "Sinopsis"
		},
		"linkText": "Lihat",
		"durationLabel": "Durasi:",
		"duration": "8 menit",
		"_pageLevelProgress": {
			"_isEnabled": true
		}
	},

    {
		"_id": "co-300",
		"_parentId": "course",
		"_type": "page",
		"_classes": "",
		"height":"570",
		"title": "Konversi Situs Web",
		"displayTitle": "Konversi Situs Web",
		"pageBody": "Pelajari cara membuat iklan yang mendorong orang ke situs web Anda dan memenuhi tujuan konversi Anda.",
		"body": "Pelajari cara membuat iklan yang mendorong orang ke situs web Anda dan memenuhi tujuan konversi Anda.",
		"_graphic": {
			"src": "course/en/images/contentobjects/co4.png",
			"alt": "Sinopsis"
		},
		"linkText": "Lihat",
		"durationLabel": "Durasi:",
		"duration": "9 menit",
		"_pageLevelProgress": {
			"_isEnabled": true
		}
	},
      {
		"_id": "co-340a",
		"_parentId": "co-340a",
		"_type": "page",
		"_classes": "",
		"height":"570",
		"title": "Opsi Lanjutan untuk Iklan Konversi Situs Web",
		"displayTitle": "Opsi Lanjutan untuk Iklan Konversi Situs Web",
		"pageBody": "Pelajari cara menerapkan opsi lanjutan untuk mendapatkan hasil maksimal dari iklan konversi situs web Anda.",
		"body": "Pelajari cara menerapkan opsi lanjutan untuk mendapatkan hasil maksimal dari iklan konversi situs web Anda.",
		"_graphic": {
			"src": "course/en/images/contentobjects/co7.png",
			"alt": "Sinopsis"
		},
		"linkText": "Lihat",
		"durationLabel": "Durasi:",
		"duration": "7 menit",
		"_pageLevelProgress": {
			"_isEnabled": true
		}
	},
    {
		"_id": "co-400",
		"_parentId": "course",
		"_type": "page",
		"_classes": "",
		"height":"570",
		"title": "Konversi di Messenger",
		"displayTitle": "Konversi di Messenger",
		"pageBody": "Pelajari cara membuat iklan yang mengarahkan orang ke Messenger dan membuat pengalaman Messenger yang disesuaikan untuk orang yang mengeklik iklan Anda.",
		"body": "Pelajari cara membuat iklan yang mengarahkan orang ke Messenger dan membuat pengalaman Messenger yang disesuaikan untuk orang yang mengeklik iklan Anda.",
		"_graphic": {
			"src": "course/en/images/contentobjects/co5.png",
			"alt": "Sinopsis"
		},
		"linkText": "Lihat",
		"durationLabel": "Durasi:",
		"duration": "8 menit",
		"_pageLevelProgress": {
			"_isEnabled": true
		}
	},
    {
		"_id": "co-500",
		"_parentId": "course",
		"_type": "page",
		"_classes": "",
		"height":"570",
		"title": "Konversi Dalam-Aplikasi",
		"displayTitle": "Konversi Dalam-Aplikasi",
		"pageBody": "Pelajari cara menggunakan fitur khusus untuk membuat iklan yang mendorong konversi di aplikasi seluler Anda.",
		"body": "Pelajari cara menggunakan fitur khusus untuk membuat iklan yang mendorong konversi di aplikasi seluler Anda.",
		"_graphic": {
			"src": "course/en/images/contentobjects/co6.png",
			"alt": "Sinopsis"
		},
		"linkText": "Lihat",
		"durationLabel": "Durasi:",
		"duration": "8 menit",
		"_pageLevelProgress": {
			"_isEnabled": true
		}
	},
      
     {
		"_id": "co-700",
		"_parentId": "course",
		"_type": "page",
		"_classes": "",
		"height":"570",
		"title": "Uji Pengetahuan",
		"displayTitle": "Uji Pengetahuan",
		"pageBody": "Siap untuk menilai pengetahuan Anda tentang cara bekerja dengan tujuan iklan konversi?",
		"body": "Siap untuk menilai pengetahuan Anda tentang cara bekerja dengan tujuan iklan konversi?",
		"_graphic": {
			"src": "course/en/images/contentobjects/co8.png",
			"alt": "Sinopsis"
		},
		"linkText": "Lihat",
		"durationLabel": "Durasi:",
		"duration": "4 menit",
		"_pageLevelProgress": {
			"_isEnabled": true
		}
	}
]
